\relax 
\abx@aux@refcontext{nyt/global//global/global}
\@writefile{toc}{\boolfalse {citerequest}\boolfalse {citetracker}\boolfalse {pagetracker}\boolfalse {backtracker}\relax }
\@writefile{lof}{\boolfalse {citerequest}\boolfalse {citetracker}\boolfalse {pagetracker}\boolfalse {backtracker}\relax }
\@writefile{lot}{\boolfalse {citerequest}\boolfalse {citetracker}\boolfalse {pagetracker}\boolfalse {backtracker}\relax }
\select@language {greek}
\@writefile{toc}{\defcounter {refsection}{0}\relax }\@writefile{toc}{\select@language {greek}}
\@writefile{lof}{\defcounter {refsection}{0}\relax }\@writefile{lof}{\select@language {greek}}
\@writefile{lot}{\defcounter {refsection}{0}\relax }\@writefile{lot}{\select@language {greek}}
\@writefile{toc}{\defcounter {refsection}{0}\relax }\@writefile{toc}{\contentsline {chapter}{Υπεύθυνη δήλωση}{2}}
\@writefile{toc}{\defcounter {refsection}{0}\relax }\@writefile{toc}{\contentsline {chapter}{Σύνοψη}{3}}
\@writefile{toc}{\defcounter {refsection}{0}\relax }\@writefile{toc}{\contentsline {chapter}{Πρόλογος}{7}}
\@writefile{toc}{\defcounter {refsection}{0}\relax }\@writefile{toc}{\contentsline {chapter}{Ευχαριστίες}{8}}
\@writefile{toc}{\defcounter {refsection}{0}\relax }\@writefile{toc}{\contentsline {chapter}{Ορισμοί}{9}}
\abx@aux@cite{Schmidt98}
\abx@aux@segm{0}{0}{Schmidt98}
\abx@aux@cite{goosens93}
\abx@aux@segm{0}{0}{goosens93}
\abx@aux@cite{Chatzigeorgiou05}
\abx@aux@segm{0}{0}{Chatzigeorgiou05}
\abx@aux@cite{Sommerville09}
\abx@aux@segm{0}{0}{Sommerville09}
\abx@aux@cite{4343930}
\abx@aux@segm{0}{0}{4343930}
\abx@aux@cite{Wikipedia_BibTeX}
\abx@aux@segm{0}{0}{Wikipedia_BibTeX}
\@writefile{toc}{\defcounter {refsection}{0}\relax }\@writefile{toc}{\contentsline {chapter}{\numberline {1}Εισαγωγή}{10}}
\@writefile{lof}{\defcounter {refsection}{0}\relax }\@writefile{lof}{\addvspace {10\p@ }}
\@writefile{lot}{\defcounter {refsection}{0}\relax }\@writefile{lot}{\addvspace {10\p@ }}
\@writefile{toc}{\defcounter {refsection}{0}\relax }\@writefile{toc}{\contentsline {section}{\numberline {1.1}Η τυπογραφία σήμερα}{10}}
\@writefile{lof}{\defcounter {refsection}{0}\relax }\@writefile{lof}{\contentsline {figure}{\numberline {1.1}{\ignorespaces Παράδειγμα εικόνας\relax }}{10}}
\providecommand*\caption@xref[2]{\@setref\relax\@undefined{#1}}
\newlabel{fig:image1}{{1.1}{10}}
\@writefile{lot}{\defcounter {refsection}{0}\relax }\@writefile{lot}{\contentsline {table}{\numberline {1.1}{\ignorespaces Παράδειγμα πίνακα\relax }}{11}}
\newlabel{tab:table1}{{1.1}{11}}
\@writefile{toc}{\defcounter {refsection}{0}\relax }\@writefile{toc}{\contentsline {chapter}{\numberline {1}Συνοπτικός οδηγός χρήσης \LaTeX  }{12}}
\@writefile{lof}{\defcounter {refsection}{0}\relax }\@writefile{lof}{\addvspace {10\p@ }}
\@writefile{lot}{\defcounter {refsection}{0}\relax }\@writefile{lot}{\addvspace {10\p@ }}
\@writefile{toc}{\defcounter {refsection}{0}\relax }\@writefile{toc}{\contentsline {chapter}{Γλωσσάρι}{13}}
